obfs4 192.95.36.142:443 CDF2E852BF539B82BD10E27E9115A31734E378C2 cert=qUVQ0srL1JI/vO6V6m/24anYXiJD3QP2HgzUKQtQ7GRqqUvs7P+tG43RtAqdhLOALP7DJQ iat-mode=1
obfs4 38.229.1.78:80 C8CBDB2464FC9804A69531437BCF2BE31FDD2EE4 cert=Hmyfd2ev46gGY7NoVxA9ngrPF2zCZtzskRTzoWXbxNkzeVnGFPWmrTtILRyqCTjHR+s9dg iat-mode=1
obfs4 37.218.245.14:38224 D9A82D2F9C2F65A18407B1D2B764F130847F8B5D cert=bjRaMrr1BRiAW8IE9U5z27fQaYgOhX1UCmOpg2pFpoMvo6ZgQMzLsaTzzQNTlm7hNcb+Sg iat-mode=0
obfs4 85.31.186.98:443 011F2599C0E9B27EE74B353155E244813763C3E5 cert=ayq0XzCwhpdysn5o0EyDUbmSOx3X/oTEbzDMvczHOdBJKlvIdHHLJGkZARtT4dcBFArPPg iat-mode=0
obfs4 85.31.186.26:443 91A6354697E6B02A386312F68D82CF86824D3606 cert=PBwr+S8JTVZo6MPdHnkTwXJPILWADLqfMGoVvhZClMq/Urndyd42BwX9YFJHZnBB3H0XCw iat-mode=0
obfs4 144.217.20.138:80 FB70B257C162BF1038CA669D568D76F5B7F0BABB cert=vYIV5MgrghGQvZPIi1tJwnzorMgqgmlKaB77Y3Z9Q/v94wZBOAXkW+fdx4aSxLVnKO+xNw iat-mode=0
obfs4 193.11.166.194:27015 2D82C2E354D531A68469ADF7F878FA6060C6BACA cert=4TLQPJrTSaDffMK7Nbao6LC7G9OW/NHkUwIdjLSS3KYf0Nv4/nQiiI8dY2TcsQx01NniOg iat-mode=0
obfs4 193.11.166.194:27020 86AC7B8D430DAC4117E9F42C9EAED18133863AAF cert=0LDeJH4JzMDtkJJrFphJCiPqKx7loozKN7VNfuukMGfHO0Z8OGdzHVkhVAOfo1mUdv9cMg iat-mode=0
obfs4 193.11.166.194:27025 1AE2C08904527FEA90C4C4F8C1083EA59FBC6FAF cert=ItvYZzW5tn6v3G4UnQa6Qz04Npro6e81AP70YujmK/KXwDFPTs3aHXcHp4n8Vt6w/bv8cA iat-mode=0
obfs4 209.148.46.65:443 74FAD13168806246602538555B5521A0383A1875 cert=ssH+9rP8dG2NLDN2XuFw63hIO/9MNNinLmxQDpVa+7kTOa9/m+tGWT1SmSYpQ9uTBGa6Hw iat-mode=0
obfs4 146.57.248.225:22 10A6CD36A537FCE513A322361547444B393989F0 cert=K1gDtDAIcUfeLqbstggjIw2rtgIKqdIhUlHp82XRqNSq/mtAjp1BIC9vHKJ2FAEpGssTPw iat-mode=0
obfs4 45.145.95.6:27015 C5B7CD6946FF10C5B3E89691A7D3F2C122D2117C cert=TD7PbUO0/0k6xYHMPW3vJxICfkMZNdkRrb63Zhl5j9dW3iRGiCx0A7mPhe5T2EDzQ35+Zw iat-mode=0
obfs4 [2a0c:4d80:42:702::1]:27015 C5B7CD6946FF10C5B3E89691A7D3F2C122D2117C cert=TD7PbUO0/0k6xYHMPW3vJxICfkMZNdkRrb63Zhl5j9dW3iRGiCx0A7mPhe5T2EDzQ35+Zw iat-mode=0
obfs4 51.222.13.177:80 5EDAC3B810E12B01F6FD8050D2FD3E277B289A08 cert=2uplIpLQ0q9+0qMFrK5pkaYRDOe460LL9WHBvatgkuRr/SL31wBOEupaMMJ6koRE6Ld0ew iat-mode=0
obfs4 185.100.87.30:443 5B403DFE34F4872EB027059CECAE30B0C864B3A2 cert=bWUdFUe8io9U6JkSLoGAvSAUDcB779/shovCYmYAQb/pW/iEAMZtO/lCd94OokOF909TPA iat-mode=2
meek_lite 192.0.2.2:2 97700DFE9F483596DDA6264C4D7DF7641E1E39CE url=https://meek.azureedge.net/ front=ajax.aspnetcdn.com

snowflake 192.0.2.3:1 2B280B23E1107BB62ABFC40DDCC8824814F80A72
